-------------------------------------------------------------------------------
Test set: com.sas.schooladministrativesystem.GroupsTest
-------------------------------------------------------------------------------
Tests run: 700, Failures: 0, Errors: 0, Skipped: 0, Time elapsed: 0.211 sec
