com\sas\schooladministrativesystem\SAS.class
com\sas\schooladministrativesystem\Subjects.class
com\sas\schooladministrativesystem\Classes.class
com\sas\schooladministrativesystem\Students.class
com\sas\schooladministrativesystem\Groups.class
