C:\Users\manu\Documents\SchoolAdministrativeSystem\SchoolAdministrativeSystem\src\test\java\com\sas\schooladministrativesystem\SASTest.java
C:\Users\manu\Documents\SchoolAdministrativeSystem\SchoolAdministrativeSystem\src\test\java\com\sas\schooladministrativesystem\SubjectsTest.java
C:\Users\manu\Documents\SchoolAdministrativeSystem\SchoolAdministrativeSystem\src\test\java\com\sas\schooladministrativesystem\ClassesTest.java
C:\Users\manu\Documents\SchoolAdministrativeSystem\SchoolAdministrativeSystem\src\test\java\com\sas\schooladministrativesystem\TestRunner.java
C:\Users\manu\Documents\SchoolAdministrativeSystem\SchoolAdministrativeSystem\src\test\java\com\sas\schooladministrativesystem\SchooladministrativesystemSuite.java
C:\Users\manu\Documents\SchoolAdministrativeSystem\SchoolAdministrativeSystem\src\test\java\com\sas\schooladministrativesystem\GroupsTest.java
C:\Users\manu\Documents\SchoolAdministrativeSystem\SchoolAdministrativeSystem\src\test\java\com\sas\schooladministrativesystem\StudentsTest.java
